Tidy Geospatial Networks in R
…
.right-output-activate-user[

```
Simple feature collection with 851 features and 4 fields
geometry type:  LINESTRING
dimension:      XY
bbox:           xmin: 7.522594 ymin: 51.94151 xmax: 7.546705 ymax: 51.9612
geographic CRS: WGS 84
# A tibble: 851 x 5
    from    to name       type                                geometry
   <int> <int> <fct>      <fct>                       <LINESTRING [°]>
 1     1     2 Havixbeck~ reside~ (7.533722 51.95556, 7.533461 51.955~
 2     3     4 Pienersal~ second~ (7.532442 51.95422, 7.53236 51.9537~
 3     5     6 Schulte-B~ reside~ (7.532709 51.95209, 7.532823 51.952~
 4     7     8 <NA>       path    (7.540063 51.94468, 7.539696 51.944~
 5     9    10 Welsinghe~ reside~ (7.537673 51.9475, 7.537614 51.9456~
 6    11    12 <NA>       footway (7.543791 51.94733, 7.54369 51.9468~
 7    13    14 <NA>       footway (7.54012 51.94478, 7.539931 51.9451~
 8     8    10 <NA>       path    (7.53822 51.94546, 7.538131 51.9454~
 9     7    15 <NA>       track   (7.540063 51.94468, 7.540338 51.944~
10    16    17 <NA>       track   (7.5424 51.94599, 7.54205 51.94629,~
# ... with 841 more rows
```
…
.right-output-activate-user[

```
Simple feature collection with 851 features and 4 fields
geometry type:  LINESTRING
dimension:      XY
bbox:           xmin: 7.522594 ymin: 51.94151 xmax: 7.546705 ymax: 51.9612
geographic CRS: WGS 84
# A tibble: 851 x 5
    from    to name       type                                geometry
   <int> <int> <fct>      <fct>                       <LINESTRING [°]>
 1     1     2 Havixbeck~ reside~ (7.533722 51.95556, 7.533461 51.955~
 2     3     4 Pienersal~ second~ (7.532442 51.95422, 7.53236 51.9537~
 3     5     6 Schulte-B~ reside~ (7.532709 51.95209, 7.532823 51.952~
 4     7     8 <NA>       path    (7.540063 51.94468, 7.539696 51.944~
 5     9    10 Welsinghe~ reside~ (7.537673 51.9475, 7.537614 51.9456~
 6    11    12 <NA>       footway (7.543791 51.94733, 7.54369 51.9468~
 7    13    14 <NA>       footway (7.54012 51.94478, 7.539931 51.9451~
 8     8    10 <NA>       path    (7.53822 51.94546, 7.538131 51.9454~
 9     7    15 <NA>       track   (7.540063 51.94468, 7.540338 51.944~
10    16    17 <NA>       track   (7.5424 51.94599, 7.54205 51.94629,~
# ... with 841 more rows
```

```
# A tibble: 851 x 4
    from    to name                  type       
   <int> <int> <fct>                 <fct>      
 1     1     2 Havixbecker Strasse   residential
 2     3     4 Pienersallee          secondary  
 3     5     6 Schulte-Bernd-Strasse residential
 4     7     8 <NA>                  path       
 5     9    10 Welsingheide          residential
 6    11    12 <NA>                  footway    
 7    13    14 <NA>                  footway    
 8     8    10 <NA>                  path       
 9     7    15 <NA>                  track      
10    16    17 <NA>                  track      
# ... with 841 more rows
```
…
